1. August 1743
1. Dezember 1746
1. Februar 1748
1. Januar 1739
1. Januar 1743
1. Januar 1745
1. Januar 1747
1. Juli 1748
1. Juni 1740
1. März 1744
1. März 1747
1. November 1747
1. Oktober 1740
1. Oktober 1741
1. Oktober 1744
1. Oktober 1746
1. Oktober 1748
10. August 1740
10. Dezember 1743
10. Februar 1741
10. Februar 1745
10. Januar 1745
10. Juli 1740
10. Juni 1739
10. Juni 1747
10. Mai 1743
10. Mai 1744
10. Mai 1746
10. November 1743
10. November 1746
10. November 1747
10. September 1747
10./11. November 1738
11. August 1747
11. Dezember 1746
11. Februar 1739
11. Januar 1748
11. Juli 1748
11. Mai 1738
11. Mai 1746
11. März 1747
11. März 1748
11. November 1746
11. Oktober 1739
11. Oktober 1743
11. Oktober 1744
11./12. Dezember 1746
12. April 1746
12. August 1747
12. Dezember 1747
12. Februar 1748
12. Juni 1740
12. Juni 1747
12. Mai 1745
12. Mai 1747
12. März 1740
12. Oktober 1747
12./13. November 1746
13. August 1747
13. August 1748
13. Dezember 1743
13. Dezember 1747
13. Februar 1748
13. Juli 1744
13. Juli 1747
13. Juli 1748
13. Juni 1745
13. Mai 1739
13. Oktober 1747
13. September 1744
14. August 1740
14. August 1747
14. Dezember 1747
14. Januar 1745
14. Januar 1748
14. Juni 1739
14. Juni 1741
14. Juni 1744
14. Juni 1745
14. Juni 1747
14. März 1745
14. März 1747
14. Oktober 1748
14. September 1740
14. September 1744
14. September 1748
15. April 1744
15. April 1746
15. August 1746
15. August 1748
15. Juli 1745
15. Juli 1747
15. Juni 1739
15. Juni 1740
15. Juni 1741
15. Mai 1739
15. Mai 1740
15. März 1739
15. November 1746
15. Oktober 1743
15. September 1747
16. August 1739
16. Dezember 1747
16. Februar 1744
16. Juli 1746
16. Juli 1748
16. Juni 1738
16. Juni 1745
16. Mai 1738
16. November 1744
16. Oktober 1747
16. September 1748
17. April 1747
17. August 1740
17. Dezember 1747
17. Februar 1740
17. Februar 1747
17. Januar 1740
17. Juli 1740
17. Juli 1746
17. Juli 1748
17. Juni 1747
17. Mai 1739
17. Mai 1747
17. März 1748
17. November 1739
17. November 1746
17. September 1738
17. September 1747
18. April 1744
18. August 1746
18. August 1747
18. Dezember 1747
18. Januar 1748
18. Juni 1743
18. Juni 1747
18. Mai 1742
18. November 1746
18. Oktober 1744
18. September 1744
18. September 1747
18./19. Juli 1747
19. April 1739
19. April 1745
19. August 1746
19. August 1748
19. Dezember 1746
19. Dezember 1747
19. Februar 1747
19. Juli 1744
19. Juli 1748
19. Juni 1743
19. Juni 1745
19. Juni 1747
19. März 1740
19. März 1748
19. November 1747
19. Oktober 1739
19. Oktober 1740
19. Oktober 1747
19. September 1747
19. September 1748
19./20. Dezember 1746
2. Dezember 1739
2. Januar 1741
2. Januar 1748
2. Juli 1740
2. November 1738
2. November 1739
2. November 1744
2. November 1748
2. Oktober 1744
2. Oktober 1748
2. September 1748
20. April 1740
20. April 1747
20. August 1747
20. Februar 1739
20. Februar 1748
20. Januar 1740
20. November 1746
20. Oktober 1742
20. Oktober 1744
20. September 1739
20. September 1740
20. September 1744
21. April 1744
21. August 1746
21. August 1747
21. Dezember 1740
21. Februar 1740
21. Februar 1744
21. Januar 1742
21. Januar 1743
21. Juli 1743
21. Juli 1747
21. Juni 1739
21. Juni 1744
21. Mai 1743
21. Mai 1744
21. März 1739
21. November 1746
21. September 1740
21. September 1742
21. September 1747
22. April 1741
22. April 1747
22. August 1744
22. August 1748
22. Februar 1744
22. Februar 1747
22. Januar 1747
22. Juli 1748
22. Oktober 1746
22. September 1738
22. September 1747
23. April 1745
23. August 1740
23. August 1747
23. Dezember 1742
23. Februar 1744
23. Januar 1748
23. Juli 1740
23. Juli 1748
23. Juni 1747
23. Mai 1743
23. März 1742
23. November 1740
23. Oktober 1746
23. September 1744
23. September 1747
23. September 1748
24. April 1742
24. April 1745
24. Dezember 1744
24. Februar 1748
24. Juli 1743
24. Juli 1747
24. März 1747
24. Oktober 1744
24. Oktober 1747
24. September 1742
24. September 1748
24. [und 26.] Januar 1740
25. April 1745
25. August 1747
25. Dezember 1747
25. Januar 1739
25. Januar 1742
25. Juni 1740
25. Juni 1747
25. März 1742
25. März 1745
25. März 1748
25. November 1739
25. November 1744
25. November 1746
25. Oktober 1739
25. Oktober 1746
25./26. Januar 1747
26. April 1745
26. Dezember 1740
26. Dezember 1746
26. Juli 1748
26. März 1747
26. November 1747
26. Oktober 1746
26. Oktober 1747
26. Oktober 1748
26. September 1747
26. September 1748
27. April 1747
27. August 1743
27. August 1747
27. August 1748
27. Dezember 1747
27. Januar 1741
27. Januar 1743
27. Juli 1744
27. Juli 1746
27. Juli 1747
27. Mai 1743
27. Mai 1745
27. März 1747
27. November 1746
27. Oktober 1739
27. Oktober 1746
27. September 1744
27./28. Juli 1743
27./29. Dezember 1746
28. April 1744
28. August 1747
28. Dezember 1738
28. Dezember 1746
28. Januar 1742
28. Juni 1744
28. Juni 1747
28. Mai 1738
28. März 1742
28. März 1748
28. Oktober 1743
28. Oktober 1746
28. September 1747
28./29. Mai 1739
29. August 1747
29. Dezember 1747
29. Februar 1748
29. Januar 1747
29. Januar 1748
29. Juli 1743
29. Juli 1748
29. Juni 1744
29. Mai 1740
29. März 1739
29. November 1738
29. November 1744
29. Oktober 1746
29. September 1747
29. September 1748
29./30. Januar 1748
3. April 1740
3. August 1740
3. Februar 1745
3. Juli 1748
3. März 1744
3. November 1743
3. November 1746
3. November 1747
3. Oktober 1739
3. Oktober 1747
3. September 1740
30. August 1738
30. August 1739
30. August 1746
30. August 1747
30. August/1. September 1747
30. Dezember 1739
30. Dezember 1741
30. Dezember 1743
30. Dezember 1744
30. Dezember 1746
30. Dezember 1747
30. Januar 1748
30. Juli 1745
30. Juli 1748
30. Juni 1745
30. Juni 1748
30. März 1747
30. November 1746
30. Oktober 1747
31. Dezember 1742
31. Januar 1740
31. Januar 1745
31. Juli 1740
31. Mai 1739
31. März 1747
31. Oktober 1746
4. August 1747
4. August 1748
4. Dezember 1746
4. Dezember 1747
4. Februar 1748
4. Januar 1743
4. Juli 1745
4. Juli 1747
4. Juli 1748
4. Mai 1745
4. März 1739
4. November 1746
4. Oktober 1738
4. Oktober 1744
4. Oktober 1746
4. Oktober 1748
5. April 1745
5. August 1743
5. Januar 1740
5. Januar 1744
5. Juli 1739
5. Juli 1745
5. Juli 1747
5. März 1745
5. März 1747
5. März 1748
5. November 1739
5. November 1747
5. November 1748
5. September 1746
5. September 1748
5./6. Januar 1745
6. April 1742
6. August 1740
6. August 1748
6. Dezember 1744
6. Dezember 1746
6. Februar 1748
6. Januar 1741
6. Juli 1744
6. Juli 1747
6. Juni 1739
6. Juni 1740
6. Juni 1747
6. Mai 1743
6. Mai 1746
6. November 1746
6. Oktober 1743
6. Oktober 1746
6. Oktober 1748
6. September 1744
7. Dezember 1743
7. Dezember 1746
7. Februar 1740
7. Februar 1745
7. Januar 1743
7. Januar 1748
7. Juli 1747
7. Juni 1739
7. Juni 1743
7. Juni 1745
7. Juni 1746
7. Mai 1740
7. Mai 1741
7. Mai 1744
7. November 1746
7. November 1747
7. Oktober 1744
7. September 1747
8. August 1745
8. Februar 1748
8. Januar 1747
8. Juli 1747
8. Juni 1740
8. Juni 1744
8. Juni 1745
8. Juni 1747
8. Mai 1739
8. Mai 1746
8. März 1744
8. März 1745
8. November 1746
8. November 1747
8. Oktober 1747
8. Oktober 1748
8. September 1744
8. September 1748
9. April 1740
9. April 1741
9. August 1747
9. Dezember 1746
9. Februar 1748
9. Januar 1743
9. Juli 1738
9. Juni 1745
9. März 1747
9. März 1748
9. November 1746
9. September 1740
9. September 1748
Ende August/Anfang September 1740
Ende Dezember 1740
Juni 1748
[1./2.] Februar 1745
[21. Februar 1744]
[27.] April 1745