{
  "volume": {
    "1": {
      "letter": {
        "1": {
          "author": "WOLFF",
          "addressee": "MANTEUFFEL",
          "place": "MARBURG",
          "date": "11. MAI 1738"
        },
        "2": {
          "author": "MANTEUFFEL",
          "addressee": "WOLFF",
          "place": "BERLIN",
          "date": "16. MAI 1738"
        },
        "3": {
          "author": "WOLFF",
          "addressee": "MANTEUFFEL",
          "place": "MARBURG",
          "date": "28. MAI 1738"
        },
        "4": {
          "author": "MANTEUFFEL",
          "addressee": "WOLFF",
          "place": "BERLIN",
          "date": "16. JUNI 1738"
        },
        "5": {
          "author": "WOLFF",
          "addressee": "MANTEUFFEL",
          "place": "MARBURG",
          "date": "9. JULI 1738"
        },
        "6": {
          "author": "MANTEUFFEL",
          "addressee": "WOLFF",
          "place": "BERLIN",
          "date": "30. AUGUST 1738"
        },
        "7": {
          "author": "WOLFF",
          "addressee": "MANTEUFFEL",
          "place": "MARBURG",
          "date": "17. SEPTEMBER 1738"
        },
        "8": {
          "author": "MANTEUFFEL",
          "addressee": "WOLFF",
          "place": "BERLIN",
          "date": "22. SEPTEMBER 1738"
        },
        "9": {
          "author": "WOLFF",
          "addressee": "MANTEUFFEL",
          "place": "MARBURG",
          "date": "4. OKTOBER 1738"
        },
        "10": {
          "author": "WOLFF",
          "addressee": "MANTEUFFEL",
          "place": "MARBURG",
          "date": "2. NOVEMBER 1738"
        },
        "11": {
          "author": "MANTEUFFEL",
          "addressee": "WOLFF",
          "place": "BERLIN",
          "date": "10./11. NOVEMBER 1738"
        },
        "12": {
          "author": "WOLFF",
          "addressee": "MANTEUFFEL",
          "place": "MARBURG",
          "date": "29. NOVEMBER 1738"
        },
        "13": {
          "author": "WOLFF",
          "addressee": "MANTEUFFEL",
          "place": "MARBURG",
          "date": "28. DEZEMBER 1738"
        },
        "14": {
          "author": "MANTEUFFEL",
          "addressee": "WOLFF",
          "place": "BERLIN",
          "date": "1. JANUAR 1739"
        },
        "15": {
          "author": "WOLFF",
          "addressee": "MANTEUFFEL",
          "place": "MARBURG",
          "date": "25. JANUAR 1739"
        },
        "16": {
          "author": "WOLFF",
          "addressee": "MANTEUFFEL",
          "place": "MARBURG",
          "date": "11. FEBRUAR 1739"
        },
        "17": {
          "author": "MANTEUFFEL",
          "addressee": "WOLFF",
          "place": "BERLIN",
          "date": "20. FEBRUAR 1739"
        },
        "18": {
          "author": "WOLFF",
          "addressee": "MANTEUFFEL",
          "place": "MARBURG",
          "date": "4. MÄRZ 1739"
        },
        "19": {
          "author": "WOLFF",
          "addressee": "MANTEUFFEL",
          "place": "MARBURG",
          "date": "15. MÄRZ 1739"
        },
        "20": {
          "author": "MANTEUFFEL",
          "addressee": "WOLFF",
          "place": "BERLIN",
          "date": "21. MÄRZ 1739"
        },
        "21": {
          "author": "WOLFF",
          "addressee": "MANTEUFFEL",
          "place": "MARBURG",
          "date": "29. MÄRZ 1739"
        },
        "22": {
          "author": "WOLFF",
          "addressee": "MANTEUFFEL",
          "place": "MARBURG",
          "date": "19. APRIL 1739"
        },
        "23": {
          "author": "MANTEUFFEL",
          "addressee": "WOLFF",
          "place": "LEIPZIG",
          "date": "8. MAI 1739"
        },
        "24": {
          "author": "WOLFF",
          "addressee": "MANTEUFFEL",
          "place": "MARBURG",
          "date": "13. MAI 1739"
        },
        "25": {
          "author": "MANTEUFFEL",
          "addressee": "WOLFF",
          "place": "LEIPZIG",
          "date": "15. MAI 1739"
        },
        "26": {
          "author": "WOLFF",
          "addressee": "MANTEUFFEL",
          "place": "MARBURG",
          "date": "17. MAI 1739"
        },
        "27": {
          "author": "MANTEUFFEL",
          "addressee": "WOLFF",
          "place": "BERLIN",
          "date": "28./29. MAI 1739"
        },
        "28": {
          "author": "WOLFF",
          "addressee": "MANTEUFFEL",
          "place": "MARBURG",
          "date": "31. MAI 1739"
        },
        "29": {
          "author": "MANTEUFFEL",
          "addressee": "WOLFF",
          "place": "BERLIN",
          "date": "6. JUNI 1739"
        },
        "30": {
          "author": "WOLFF",
          "addressee": "MANTEUFFEL",
          "place": "MARBURG",
          "date": "7. JUNI 1739"
        },
        "31": {
          "author": "WOLFF",
          "addressee": "MANTEUFFEL",
          "place": "MARBURG",
          "date": "10. JUNI 1739"
        },
        "32": {
          "author": "MANTEUFFEL",
          "addressee": "WOLFF",
          "place": "BERLIN",
          "date": "14. JUNI 1739"
        },
        "33": {
          "author": "MANTEUFFEL",
          "addressee": "WOLFF",
          "place": "BERLIN",
          "date": "15. JUNI 1739"
        },
        "34": {
          "author": "WOLFF",
          "addressee": "MANTEUFFEL",
          "place": "MARBURG",
          "date": "21. JUNI 1739"
        },
        "35": {
          "author": "WOLFF",
          "addressee": "MANTEUFFEL",
          "place": "MARBURG",
          "date": "5. JULI 1739"
        },
        "36": {
          "author": "MANTEUFFEL",
          "addressee": "WOLFF",
          "place": "BERLIN",
          "date": "16. AUGUST 1739"
        },
        "37": {
          "author": "WOLFF",
          "addressee": "MANTEUFFEL",
          "place": "MARBURG",
          "date": "30. AUGUST 1739"
        },
        "38": {
          "author": "WOLFF",
          "addressee": "MANTEUFFEL",
          "place": "MARBURG",
          "date": "20. SEPTEMBER 1739"
        },
        "39": {
          "author": "MANTEUFFEL",
          "addressee": "WOLFF",
          "place": "BERLIN",
          "date": "3. OKTOBER 1739"
        },
        "40": {
          "author": "WOLFF",
          "addressee": "MANTEUFFEL",
          "place": "MARBURG",
          "date": "11. OKTOBER 1739"
        },
        "41": {
          "author": "MANTEUFFEL",
          "addressee": "WOLFF",
          "place": "BERLIN",
          "date": "19. OKTOBER 1739"
        },
        "42": {
          "author": "MANTEUFFEL",
          "addressee": "WOLFF",
          "place": "BERLIN",
          "date": "25. OKTOBER 1739"
        },
        "43": {
          "author": "WOLFF",
          "addressee": "MANTEUFFEL",
          "place": "MARBURG",
          "date": "27. OKTOBER 1739"
        },
        "44": {
          "author": "MANTEUFFEL",
          "addressee": "WOLFF",
          "place": "BERLIN",
          "date": "2. NOVEMBER 1739"
        },
        "45": {
          "author": "WOLFF",
          "addressee": "MANTEUFFEL",
          "place": "MARBURG",
          "date": "5. NOVEMBER 1739"
        },
        "46": {
          "author": "MANTEUFFEL",
          "addressee": "WOLFF",
          "place": "BERLIN",
          "date": "17. NOVEMBER 1739"
        },
        "47": {
          "author": "WOLFF",
          "addressee": "MANTEUFFEL",
          "place": "MARBURG",
          "date": "25. NOVEMBER 1739"
        },
        "48": {
          "author": "MANTEUFFEL",
          "addressee": "WOLFF",
          "place": "BERLIN",
          "date": "2. DEZEMBER 1739"
        },
        "49": {
          "author": "WOLFF",
          "addressee": "MANTEUFFEL",
          "place": "MARBURG",
          "date": "30. DEZEMBER 1739"
        },
        "50": {
          "author": "MANTEUFFEL",
          "addressee": "WOLFF",
          "place": "BERLIN",
          "date": "5. JANUAR 1740"
        },
        "51": {
          "author": "WOLFF",
          "addressee": "MANTEUFFEL",
          "place": "MARBURG",
          "date": "17. JANUAR 1740"
        },
        "52": {
          "author": "WOLFF",
          "addressee": "MANTEUFFEL",
          "place": "MARBURG",
          "date": "20. JANUAR 1740"
        },
        "53": {
          "author": "MANTEUFFEL",
          "addressee": "WOLFF",
          "place": "BERLIN",
          "date": "24. JANUAR 1740"
        },
        "54": {
          "author": "MANTEUFFEL",
          "addressee": "WOLFF",
          "place": "BERLIN",
          "date": "31. JANUAR 1740"
        },
        "55": {
          "author": "WOLFF",
          "addressee": "MANTEUFFEL",
          "place": "MARBURG",
          "date": "7. FEBRUAR 1740"
        },
        "56": {
          "author": "WOLFF",
          "addressee": "MANTEUFFEL",
          "place": "MARBURG",
          "date": "17. FEBRUAR 1740"
        },
        "57": {
          "author": "MANTEUFFEL",
          "addressee": "WOLFF",
          "place": "BERLIN",
          "date": "21. FEBRUAR 1740"
        },
        "58": {
          "author": "WOLFF",
          "addressee": "MANTEUFFEL",
          "place": "MARBURG",
          "date": "12. MÄRZ 1740"
        },
        "59": {
          "author": "MANTEUFFEL",
          "addressee": "WOLFF",
          "place": "BERLIN",
          "date": "19. MÄRZ 1740"
        },
        "60": {
          "author": "WOLFF",
          "addressee": "MANTEUFFEL",
          "place": "MARBURG",
          "date": "3. APRIL 1740"
        },
        "61": {
          "author": "MANTEUFFEL",
          "addressee": "WOLFF",
          "place": "BERLIN",
          "date": "9. APRIL 1740"
        },
        "62": {
          "author": "WOLFF",
          "addressee": "MANTEUFFEL",
          "place": "MARBURG",
          "date": "20. APRIL 1740"
        },
        "63": {
          "author": "WOLFF",
          "addressee": "MANTEUFFEL",
          "place": "MARBURG",
          "date": "7. MAI 1740"
        },
        "64": {
          "author": "MANTEUFFEL",
          "addressee": "WOLFF",
          "place": "BERLIN",
          "date": "15. MAI 1740"
        },
        "65": {
          "author": "WOLFF",
          "addressee": "MANTEUFFEL",
          "place": "MARBURG",
          "date": "29. MAI 1740"
        },
        "66": {
          "author": "MANTEUFFEL",
          "addressee": "WOLFF",
          "place": "BERLIN",
          "date": "1. JUNI 1740"
        },
        "67": {
          "author": "MANTEUFFEL",
          "addressee": "WOLFF",
          "place": "BERLIN",
          "date": "6. JUNI 1740"
        },
        "68": {
          "author": "WOLFF",
          "addressee": "MANTEUFFEL",
          "place": "MARBURG",
          "date": "8. JUNI 1740"
        },
        "69": {
          "author": "WOLFF",
          "addressee": "MANTEUFFEL",
          "place": "MARBURG",
          "date": "12. JUNI 1740"
        },
        "70": {
          "author": "WOLFF",
          "addressee": "MANTEUFFEL",
          "place": "MARBURG",
          "date": "15. JUNI 1740"
        },
        "71": {
          "author": "MANTEUFFEL",
          "addressee": "WOLFF",
          "place": "BERLIN",
          "date": "25. JUNI 1740"
        },
        "72": {
          "author": "MANTEUFFEL",
          "addressee": "WOLFF",
          "place": "BERLIN",
          "date": "2. JULI 1740"
        },
        "73": {
          "author": "WOLFF",
          "addressee": "MANTEUFFEL",
          "place": "MARBURG",
          "date": "10. JULI 1740"
        },
        "74": {
          "author": "WOLFF",
          "addressee": "MANTEUFFEL",
          "place": "MARBURG",
          "date": "17. JULI 1740"
        },
        "75": {
          "author": "MANTEUFFEL",
          "addressee": "WOLFF",
          "place": "BERLIN",
          "date": "23. JULI 1740"
        },
        "76": {
          "author": "WOLFF",
          "addressee": "MANTEUFFEL",
          "place": "MARBURG",
          "date": "31. JULI 1740"
        },
        "77": {
          "author": "WOLFF",
          "addressee": "MANTEUFFEL",
          "place": "MARBURG",
          "date": "3. AUGUST 1740"
        },
        "78": {
          "author": "MANTEUFFEL",
          "addressee": "WOLFF",
          "place": "BERLIN",
          "date": "6. AUGUST 1740"
        },
        "79": {
          "author": "MANTEUFFEL",
          "addressee": "WOLFF",
          "place": "BERLIN",
          "date": "10. AUGUST 1740"
        },
        "80": {
          "author": "WOLFF",
          "addressee": "MANTEUFFEL",
          "place": "MARBURG",
          "date": "14. AUGUST 1740"
        },
        "81": {
          "author": "WOLFF",
          "addressee": "MANTEUFFEL",
          "place": "MARBURG",
          "date": "17. AUGUST 1740"
        },
        "82": {
          "author": "MANTEUFFEL",
          "addressee": "WOLFF",
          "place": "BERLIN",
          "date": "23. AUGUST 1740"
        },
        "83": {
          "author": "WOLFF",
          "addressee": "MANTEUFFEL",
          "place": "MARBURG",
          "date": "ENDE AUGUST/ANFANG SEPTEMBER 1740"
        },
        "84": {
          "author": "MANTEUFFEL",
          "addressee": "WOLFF",
          "place": "BERLIN",
          "date": "3. SEPTEMBER 1740"
        },
        "85": {
          "author": "MANTEUFFEL",
          "addressee": "WOLFF",
          "place": "BERLIN",
          "date": "9. SEPTEMBER 1740"
        },
        "86": {
          "author": "WOLFF",
          "addressee": "MANTEUFFEL",
          "place": "MARBURG",
          "date": "14. SEPTEMBER 1740"
        },
        "87": {
          "author": "MANTEUFFEL",
          "addressee": "WOLFF",
          "place": "BERLIN",
          "date": "20. SEPTEMBER 1740"
        },
        "88": {
          "author": "WOLFF",
          "addressee": "MANTEUFFEL",
          "place": "MARBURG",
          "date": "21. SEPTEMBER 1740"
        },
        "89": {
          "author": "WOLFF",
          "addressee": "MANTEUFFEL",
          "place": "MARBURG",
          "date": "1. OKTOBER 1740"
        },
        "90": {
          "author": "WOLFF",
          "addressee": "MANTEUFFEL",
          "place": "MARBURG",
          "date": "19. OKTOBER 1740"
        },
        "91": {
          "author": "WOLFF",
          "addressee": "MANTEUFFEL",
          "place": "MARBURG",
          "date": "23. NOVEMBER 1740"
        },
        "92": {
          "author": "MANTEUFFEL",
          "addressee": "WOLFF",
          "place": "LEIPZIG",
          "date": "21. DEZEMBER 1740"
        },
        "93": {
          "author": "WOLFF",
          "addressee": "MANTEUFFEL",
          "place": "HALLE",
          "date": "26. DEZEMBER 1740"
        },
        "94": {
          "author": "WOLFF",
          "addressee": "MANTEUFFEL",
          "place": "HALLE",
          "date": "ENDE DEZEMBER 1740"
        },
        "95": {
          "author": "MANTEUFFEL",
          "addressee": "WOLFF",
          "place": "LEIPZIG",
          "date": "2. JANUAR 1741"
        },
        "96": {
          "author": "WOLFF",
          "addressee": "MANTEUFFEL",
          "place": "HALLE",
          "date": "6. JANUAR 1741"
        },
        "97": {
          "author": "WOLFF",
          "addressee": "MANTEUFFEL",
          "place": "HALLE",
          "date": "27. JANUAR 1741"
        },
        "98": {
          "author": "MANTEUFFEL",
          "addressee": "WOLFF",
          "place": "LEIPZIG",
          "date": "10. FEBRUAR 1741"
        },
        "99": {
          "author": "WOLFF",
          "addressee": "MANTEUFFEL",
          "place": "HALLE",
          "date": "9. APRIL 1741"
        },
        "100": {
          "author": "WOLFF",
          "addressee": "MANTEUFFEL",
          "place": "HALLE",
          "date": "22. APRIL 1741"
        },
        "101": {
          "author": "WOLFF",
          "addressee": "MANTEUFFEL",
          "place": "HALLE",
          "date": "7. MAI 1741"
        },
        "102": {
          "author": "WOLFF",
          "addressee": "MANTEUFFEL",
          "place": "HALLE",
          "date": "14. JUNI 1741"
        },
        "103": {
          "author": "MANTEUFFEL",
          "addressee": "WOLFF",
          "place": "LEIPZIG",
          "date": "15. JUNI 1741"
        },
        "104": {
          "author": "WOLFF",
          "addressee": "MANTEUFFEL",
          "place": "HALLE",
          "date": "1. OKTOBER 1741"
        },
        "105": {
          "author": "WOLFF",
          "addressee": "MANTEUFFEL",
          "place": "HALLE",
          "date": "30. DEZEMBER 1741"
        },
        "106": {
          "author": "WOLFF",
          "addressee": "MANTEUFFEL",
          "place": "HALLE",
          "date": "21. JANUAR 1742"
        },
        "107": {
          "author": "MANTEUFFEL",
          "addressee": "WOLFF",
          "place": "LEIPZIG",
          "date": "25. JANUAR 1742"
        },
        "108": {
          "author": "WOLFF",
          "addressee": "MANTEUFFEL",
          "place": "HALLE",
          "date": "28. JANUAR 1742"
        },
        "109": {
          "author": "WOLFF",
          "addressee": "MANTEUFFEL",
          "place": "HALLE",
          "date": "23. MÄRZ 1742"
        },
        "110": {
          "author": "MANTEUFFEL",
          "addressee": "WOLFF",
          "place": "LEIPZIG",
          "date": "25. MÄRZ 1742"
        },
        "111": {
          "author": "WOLFF",
          "addressee": "MANTEUFFEL",
          "place": "HALLE",
          "date": "28. MÄRZ 1742"
        },
        "112": {
          "author": "MANTEUFFEL",
          "addressee": "WOLFF",
          "place": "LEIPZIG",
          "date": "6. APRIL 1742"
        },
        "113": {
          "author": "WOLFF",
          "addressee": "MANTEUFFEL",
          "place": "HALLE",
          "date": "24. APRIL 1742"
        },
        "114": {
          "author": "WOLFF",
          "addressee": "MANTEUFFEL",
          "place": "HALLE",
          "date": "18. MAI 1742"
        },
        "115": {
          "author": "WOLFF",
          "addressee": "MANTEUFFEL",
          "place": "HALLE",
          "date": "21. SEPTEMBER 1742"
        },
        "116": {
          "author": "MANTEUFFEL",
          "addressee": "WOLFF",
          "place": "LEIPZIG",
          "date": "24. SEPTEMBER 1742"
        },
        "117": {
          "author": "WOLFF",
          "addressee": "MANTEUFFEL",
          "place": "HALLE",
          "date": "20. OKTOBER 1742"
        },
        "118": {
          "author": "MANTEUFFEL",
          "addressee": "WOLFF",
          "place": "LEIPZIG",
          "date": "23. DEZEMBER 1742"
        },
        "119": {
          "author": "WOLFF",
          "addressee": "MANTEUFFEL",
          "place": "HALLE",
          "date": "31. DEZEMBER 1742"
        },
        "120": {
          "author": "WOLFF",
          "addressee": "MANTEUFFEL",
          "place": "HALLE",
          "date": "1. JANUAR 1743"
        },
        "121": {
          "author": "MANTEUFFEL",
          "addressee": "WOLFF",
          "place": "LEIPZIG",
          "date": "4. JANUAR 1743"
        },
        "122": {
          "author": "WOLFF",
          "addressee": "MANTEUFFEL",
          "place": "HALLE",
          "date": "7. JANUAR 1743"
        },
        "123": {
          "author": "MANTEUFFEL",
          "addressee": "WOLFF",
          "place": "LEIPZIG",
          "date": "9. JANUAR 1743"
        },
        "124": {
          "author": "WOLFF",
          "addressee": "MANTEUFFEL",
          "place": "HALLE",
          "date": "21. JANUAR 1743"
        },
        "125": {
          "author": "WOLFF",
          "addressee": "MANTEUFFEL",
          "place": "HALLE",
          "date": "27. JANUAR 1743"
        },
        "126": {
          "author": "WOLFF",
          "addressee": "MANTEUFFEL",
          "place": "HALLE",
          "date": "6. MAI 1743"
        },
        "127": {
          "author": "MANTEUFFEL",
          "addressee": "WOLFF",
          "place": "LEIPZIG",
          "date": "10. MAI 1743"
        },
        "128": {
          "author": "WOLFF",
          "addressee": "MANTEUFFEL",
          "place": "HALLE",
          "date": "21. MAI 1743"
        },
        "129": {
          "author": "MANTEUFFEL",
          "addressee": "WOLFF",
          "place": "LEIPZIG",
          "date": "23. MAI 1743"
        },
        "130": {
          "author": "WOLFF",
          "addressee": "MANTEUFFEL",
          "place": "HALLE",
          "date": "27. MAI 1743"
        },
        "131": {
          "author": "WOLFF",
          "addressee": "MANTEUFFEL",
          "place": "HALLE",
          "date": "7. JUNI 1743"
        },
        "132": {
          "author": "WOLFF",
          "addressee": "MANTEUFFEL",
          "place": "HALLE",
          "date": "18. JUNI 1743"
        },
        "133": {
          "author": "MANTEUFFEL",
          "addressee": "WOLFF",
          "place": "LEIPZIG",
          "date": "19. JUNI 1743"
        },
        "134": {
          "author": "WOLFF",
          "addressee": "MANTEUFFEL",
          "place": "HALLE",
          "date": "21. JULI 1743"
        },
        "135": {
          "author": "WOLFF",
          "addressee": "MANTEUFFEL",
          "place": "HALLE",
          "date": "24. JULI 1743"
        },
        "136": {
          "author": "WOLFF",
          "addressee": "MANTEUFFEL",
          "place": "HALLE",
          "date": "27./28. JULI 1743"
        },
        "137": {
          "author": "MANTEUFFEL",
          "addressee": "WOLFF",
          "place": "LEIPZIG",
          "date": "29. JULI 1743"
        },
        "138": {
          "author": "WOLFF",
          "addressee": "MANTEUFFEL",
          "place": "HALLE",
          "date": "1. AUGUST 1743"
        },
        "139": {
          "author": "WOLFF",
          "addressee": "MANTEUFFEL",
          "place": "HALLE",
          "date": "5. AUGUST 1743"
        },
        "140": {
          "author": "WOLFF",
          "addressee": "MANTEUFFEL",
          "place": "HALLE",
          "date": "27. AUGUST 1743"
        },
        "141": {
          "author": "WOLFF",
          "addressee": "MANTEUFFEL",
          "place": "HALLE",
          "date": "6. OKTOBER 1743"
        },
        "142": {
          "author": "WOLFF",
          "addressee": "MANTEUFFEL",
          "place": "HALLE",
          "date": "11. OKTOBER 1743"
        },
        "143": {
          "author": "WOLFF",
          "addressee": "MANTEUFFEL",
          "place": "HALLE",
          "date": "15. OKTOBER 1743"
        },
        "144": {
          "author": "WOLFF",
          "addressee": "MANTEUFFEL",
          "place": "HALLE",
          "date": "28. OKTOBER 1743"
        },
        "145": {
          "author": "WOLFF",
          "addressee": "MANTEUFFEL",
          "place": "HALLE",
          "date": "3. NOVEMBER 1743"
        },
        "146": {
          "author": "WOLFF",
          "addressee": "MANTEUFFEL",
          "place": "HALLE",
          "date": "10. NOVEMBER 1743"
        },
        "147": {
          "author": "WOLFF",
          "addressee": "MANTEUFFEL",
          "place": "HALLE",
          "date": "7. DEZEMBER 1743"
        },
        "148": {
          "author": "MANTEUFFEL",
          "addressee": "WOLFF",
          "place": "LEIPZIG",
          "date": "10. DEZEMBER 1743"
        },
        "149": {
          "author": "WOLFF",
          "addressee": "MANTEUFFEL",
          "place": "HALLE",
          "date": "13. DEZEMBER 1743"
        },
        "150": {
          "author": "MANTEUFFEL",
          "addressee": "WOLFF",
          "place": "LEIPZIG",
          "date": "30. DEZEMBER 1743"
        }
      }
    },
    "2": {
      "letter": {
        "151": {
          "author": "WOLFF",
          "addressee": "MANTEUFFEL",
          "place": "HALLE",
          "date": "5. JANUAR 1744"
        },
        "152": {
          "author": "MANTEUFFEL",
          "addressee": "WOLFF",
          "place": "LEIPZIG",
          "date": "16. FEBRUAR 1744"
        },
        "153": {
          "author": "MANTEUFFEL",
          "addressee": "WOLFF",
          "place": "LEIPZIG",
          "date": "21. FEBRUAR 1744"
        },
        "154": {
          "author": "WOLFF",
          "addressee": "MANTEUFFEL",
          "place": "HALLE",
          "date": "22. FEBRUAR 1744"
        },
        "155": {
          "author": "WOLFF",
          "addressee": "MANTEUFFEL",
          "place": "HALLE",
          "date": "OHNE DATUM [FEBRUAR 1744]"
        },
        "156": {
          "author": "WOLFF",
          "addressee": "MANTEUFFEL",
          "place": "HALLE",
          "date": "23. FEBRUAR 1744"
        },
        "157": {
          "author": "WOLFF",
          "addressee": "MANTEUFFEL",
          "place": "HALLE",
          "date": "1. MÄRZ 1744"
        },
        "158": {
          "author": "MANTEUFFEL",
          "addressee": "WOLFF",
          "place": "LEIPZIG",
          "date": "3. MÄRZ 1744"
        },
        "159": {
          "author": "WOLFF",
          "addressee": "MANTEUFFEL",
          "place": "HALLE",
          "date": "8. MÄRZ 1744"
        },
        "160": {
          "author": "WOLFF",
          "addressee": "MANTEUFFEL",
          "place": "HALLE",
          "date": "15. APRIL 1744"
        },
        "161": {
          "author": "MANTEUFFEL",
          "addressee": "WOLFF",
          "place": "LEIPZIG",
          "date": "18. APRIL 1744"
        },
        "162": {
          "author": "WOLFF",
          "addressee": "MANTEUFFEL",
          "place": "HALLE",
          "date": "21. APRIL 1744"
        },
        "163": {
          "author": "WOLFF",
          "addressee": "MANTEUFFEL",
          "place": "HALLE",
          "date": "28. APRIL 1744"
        },
        "164": {
          "author": "WOLFF",
          "addressee": "MANTEUFFEL",
          "place": "HALLE",
          "date": "7. MAI 1744"
        },
        "165": {
          "author": "WOLFF",
          "addressee": "MANTEUFFEL",
          "place": "HALLE",
          "date": "10. MAI 1744"
        },
        "166": {
          "author": "WOLFF",
          "addressee": "MANTEUFFEL",
          "place": "HALLE",
          "date": "21. MAI 1744"
        },
        "167": {
          "author": "WOLFF",
          "addressee": "MANTEUFFEL",
          "place": "HALLE",
          "date": "8. JUNI 1744"
        },
        "168": {
          "author": "WOLFF",
          "addressee": "MANTEUFFEL",
          "place": "HALLE",
          "date": "14. JUNI 1744"
        },
        "169": {
          "author": "WOLFF",
          "addressee": "MANTEUFFEL",
          "place": "HALLE",
          "date": "21. JUNI 1744"
        },
        "170": {
          "author": "WOLFF",
          "addressee": "MANTEUFFEL",
          "place": "HALLE",
          "date": "28. JUNI 1744"
        },
        "171": {
          "author": "WOLFF",
          "addressee": "MANTEUFFEL",
          "place": "HALLE",
          "date": "29. JUNI 1744"
        },
        "172": {
          "author": "WOLFF",
          "addressee": "MANTEUFFEL",
          "place": "HALLE",
          "date": "6. JULI 1744"
        },
        "173": {
          "author": "WOLFF",
          "addressee": "MANTEUFFEL",
          "place": "HALLE",
          "date": "13. JULI 1744"
        },
        "174": {
          "author": "WOLFF",
          "addressee": "MANTEUFFEL",
          "place": "HALLE",
          "date": "19. JULI 1744"
        },
        "175": {
          "author": "WOLFF",
          "addressee": "MANTEUFFEL",
          "place": "HALLE",
          "date": "27. JULI 1744"
        },
        "176": {
          "author": "WOLFF",
          "addressee": "MANTEUFFEL",
          "place": "HALLE",
          "date": "22. AUGUST 1744"
        },
        "177": {
          "author": "WOLFF",
          "addressee": "MANTEUFFEL",
          "place": "HALLE",
          "date": "6. SEPTEMBER 1744"
        },
        "178": {
          "author": "MANTEUFFEL",
          "addressee": "WOLFF",
          "place": "LEIPZIG",
          "date": "8. SEPTEMBER 1744"
        },
        "179": {
          "author": "WOLFF",
          "addressee": "MANTEUFFEL",
          "place": "HALLE",
          "date": "13. SEPTEMBER 1744"
        },
        "180": {
          "author": "MANTEUFFEL",
          "addressee": "WOLFF",
          "place": "LEIPZIG",
          "date": "14. SEPTEMBER 1744"
        },
        "181": {
          "author": "MANTEUFFEL",
          "addressee": "WOLFF",
          "place": "LEIPZIG",
          "date": "18. SEPTEMBER 1744"
        },
        "182": {
          "author": "WOLFF",
          "addressee": "MANTEUFFEL",
          "place": "HALLE",
          "date": "20. SEPTEMBER 1744"
        },
        "183": {
          "author": "WOLFF",
          "addressee": "MANTEUFFEL",
          "place": "HALLE",
          "date": "23. SEPTEMBER 1744"
        },
        "184": {
          "author": "WOLFF",
          "addressee": "MANTEUFFEL",
          "place": "HALLE",
          "date": "27. SEPTEMBER 1744"
        },
        "185": {
          "author": "WOLFF",
          "addressee": "MANTEUFFEL",
          "place": "HALLE",
          "date": "1. OKTOBER 1744"
        },
        "186": {
          "author": "MANTEUFFEL",
          "addressee": "WOLFF",
          "place": "LEIPZIG",
          "date": "2. OKTOBER 1744"
        },
        "187": {
          "author": "WOLFF",
          "addressee": "MANTEUFFEL",
          "place": "HALLE",
          "date": "4. OKTOBER 1744"
        },
        "188": {
          "author": "MANTEUFFEL",
          "addressee": "WOLFF",
          "place": "LEIPZIG",
          "date": "7. OKTOBER 1744"
        },
        "189": {
          "author": "WOLFF",
          "addressee": "MANTEUFFEL",
          "place": "HALLE",
          "date": "11. OKTOBER 1744"
        },
        "190": {
          "author": "WOLFF",
          "addressee": "MANTEUFFEL",
          "place": "HALLE",
          "date": "18. OKTOBER 1744"
        },
        "191": {
          "author": "WOLFF",
          "addressee": "MANTEUFFEL",
          "place": "HALLE",
          "date": "20. OKTOBER 1744"
        },
        "192": {
          "author": "WOLFF",
          "addressee": "MANTEUFFEL",
          "place": "HALLE",
          "date": "24. OKTOBER 1744"
        },
        "193": {
          "author": "WOLFF",
          "addressee": "MANTEUFFEL",
          "place": "HALLE",
          "date": "2. NOVEMBER 1744"
        },
        "194": {
          "author": "WOLFF",
          "addressee": "MANTEUFFEL",
          "place": "HALLE",
          "date": "16. NOVEMBER 1744"
        },
        "195": {
          "author": "WOLFF",
          "addressee": "MANTEUFFEL",
          "place": "HALLE",
          "date": "25. NOVEMBER 1744"
        },
        "196": {
          "author": "WOLFF",
          "addressee": "MANTEUFFEL",
          "place": "HALLE",
          "date": "29. NOVEMBER 1744"
        },
        "197": {
          "author": "WOLFF",
          "addressee": "MANTEUFFEL",
          "place": "HALLE",
          "date": "6. DEZEMBER 1744"
        },
        "198": {
          "author": "WOLFF",
          "addressee": "MANTEUFFEL",
          "place": "HALLE",
          "date": "24. DEZEMBER 1744"
        },
        "199": {
          "author": "WOLFF",
          "addressee": "MANTEUFFEL",
          "place": "HALLE",
          "date": "30. DEZEMBER 1744"
        },
        "200": {
          "author": "WOLFF",
          "addressee": "MANTEUFFEL",
          "place": "HALLE",
          "date": "1. JANUAR 1745"
        },
        "201": {
          "author": "MANTEUFFEL",
          "addressee": "WOLFF",
          "place": "LEIPZIG",
          "date": "5./6. JANUAR 1745"
        },
        "202": {
          "author": "WOLFF",
          "addressee": "MANTEUFFEL",
          "place": "HALLE",
          "date": "10. JANUAR 1745"
        },
        "203": {
          "author": "WOLFF",
          "addressee": "MANTEUFFEL",
          "place": "HALLE",
          "date": "14. JANUAR 1745"
        },
        "204": {
          "author": "WOLFF",
          "addressee": "MANTEUFFEL",
          "place": "HALLE",
          "date": "31. JANUAR 1745"
        },
        "205": {
          "author": "WOLFF",
          "addressee": "MANTEUFFEL",
          "place": "HALLE",
          "date": "[1. ODER 2.] FEBRUAR 1745"
        },
        "206": {
          "author": "WOLFF",
          "addressee": "MANTEUFFEL",
          "place": "HALLE",
          "date": "3. FEBRUAR 1745"
        },
        "207": {
          "author": "WOLFF",
          "addressee": "MANTEUFFEL",
          "place": "HALLE",
          "date": "7. FEBRUAR 1745"
        },
        "208": {
          "author": "MANTEUFFEL",
          "addressee": "WOLFF",
          "place": "LEIPZIG",
          "date": "10. FEBRUAR 1745"
        },
        "209": {
          "author": "MANTEUFFEL",
          "addressee": "WOLFF",
          "place": "LEIPZIG",
          "date": "5. MÄRZ 1745"
        },
        "210": {
          "author": "WOLFF",
          "addressee": "MANTEUFFEL",
          "place": "HALLE",
          "date": "8. MÄRZ 1745"
        },
        "211": {
          "author": "WOLFF",
          "addressee": "MANTEUFFEL",
          "place": "HALLE",
          "date": "14. MÄRZ 1745"
        },
        "212": {
          "author": "MANTEUFFEL",
          "addressee": "WOLFF",
          "place": "LEIPZIG",
          "date": "25. MÄRZ 1745"
        },
        "213": {
          "author": "WOLFF",
          "addressee": "MANTEUFFEL",
          "place": "HALLE",
          "date": "25. MÄRZ 1745"
        },
        "214": {
          "author": "WOLFF",
          "addressee": "MANTEUFFEL",
          "place": "HALLE",
          "date": "5. APRIL 1745"
        },
        "215": {
          "author": "WOLFF",
          "addressee": "MANTEUFFEL",
          "place": "HALLE",
          "date": "19. APRIL 1745"
        },
        "216": {
          "author": "MANTEUFFEL",
          "addressee": "WOLFF",
          "place": "LEIPZIG",
          "date": "23. APRIL 1745"
        },
        "217": {
          "author": "WOLFF",
          "addressee": "MANTEUFFEL",
          "place": "HALLE",
          "date": "24. APRIL 1745"
        },
        "218": {
          "author": "MANTEUFFEL",
          "addressee": "WOLFF",
          "place": "LEIPZIG",
          "date": "25. APRIL 1745"
        },
        "219": {
          "author": "WOLFF",
          "addressee": "MANTEUFFEL",
          "place": "HALLE",
          "date": "26. APRIL 1745"
        },
        "220": {
          "author": "WOLFF",
          "addressee": "MANTEUFFEL",
          "place": "HALLE",
          "date": "27. APRIL 1745"
        },
        "221": {
          "author": "WOLFF",
          "addressee": "MANTEUFFEL",
          "place": "HALLE",
          "date": "4. MAI 1745"
        },
        "222": {
          "author": "WOLFF",
          "addressee": "MANTEUFFEL",
          "place": "HALLE",
          "date": "12. MAI 1745"
        },
        "223": {
          "author": "WOLFF",
          "addressee": "MANTEUFFEL",
          "place": "HALLE",
          "date": "27. MAI 1745"
        },
        "224": {
          "author": "WOLFF",
          "addressee": "MANTEUFFEL",
          "place": "HALLE",
          "date": "7. JUNI 1745"
        },
        "225": {
          "author": "WOLFF",
          "addressee": "MANTEUFFEL",
          "place": "HALLE",
          "date": "8. JUNI 1745"
        },
        "226": {
          "author": "WOLFF",
          "addressee": "MANTEUFFEL",
          "place": "HALLE",
          "date": "9. JUNI 1745"
        },
        "227": {
          "author": "WOLFF",
          "addressee": "MANTEUFFEL",
          "place": "HALLE",
          "date": "13. JUNI 1745"
        },
        "228": {
          "author": "MANTEUFFEL",
          "addressee": "WOLFF",
          "place": "LEIPZIG",
          "date": "14. JUNI 1745"
        },
        "229": {
          "author": "WOLFF",
          "addressee": "MANTEUFFEL",
          "place": "HALLE",
          "date": "16. JUNI 1745"
        },
        "230": {
          "author": "WOLFF",
          "addressee": "MANTEUFFEL",
          "place": "HALLE",
          "date": "19. JUNI 1745"
        },
        "231": {
          "author": "WOLFF",
          "addressee": "MANTEUFFEL",
          "place": "HALLE",
          "date": "30. JUNI 1745"
        },
        "232": {
          "author": "WOLFF",
          "addressee": "MANTEUFFEL",
          "place": "HALLE",
          "date": "4. JULI 1745"
        },
        "233": {
          "author": "WOLFF",
          "addressee": "MANTEUFFEL",
          "place": "HALLE",
          "date": "5. JULI 1745"
        },
        "234": {
          "author": "WOLFF",
          "addressee": "MANTEUFFEL",
          "place": "HALLE",
          "date": "15. JULI 1745"
        },
        "235": {
          "author": "WOLFF",
          "addressee": "MANTEUFFEL",
          "place": "HALLE",
          "date": "30. JULI 1745"
        },
        "236": {
          "author": "WOLFF",
          "addressee": "MANTEUFFEL",
          "place": "HALLE",
          "date": "8. AUGUST 1745"
        },
        "237": {
          "author": "WOLFF",
          "addressee": "MANTEUFFEL",
          "place": "HALLE",
          "date": "12. APRIL 1746"
        },
        "238": {
          "author": "MANTEUFFEL",
          "addressee": "WOLFF",
          "place": "DRESDEN",
          "date": "15. APRIL 1746"
        },
        "239": {
          "author": "WOLFF",
          "addressee": "MANTEUFFEL",
          "place": "HALLE",
          "date": "6. MAI 1746"
        },
        "240": {
          "author": "WOLFF",
          "addressee": "MANTEUFFEL",
          "place": "HALLE",
          "date": "8. MAI 1746"
        },
        "241": {
          "author": "MANTEUFFEL",
          "addressee": "WOLFF",
          "place": "LEIPZIG",
          "date": "10. MAI 1746"
        },
        "242": {
          "author": "WOLFF",
          "addressee": "MANTEUFFEL",
          "place": "HALLE",
          "date": "11. MAI 1746"
        },
        "243": {
          "author": "WOLFF",
          "addressee": "MANTEUFFEL",
          "place": "HALLE",
          "date": "7. JUNI 1746"
        },
        "244": {
          "author": "WOLFF",
          "addressee": "MANTEUFFEL",
          "place": "HALLE",
          "date": "16. JULI 1746"
        },
        "245": {
          "author": "MANTEUFFEL",
          "addressee": "WOLFF",
          "place": "LEIPZIG",
          "date": "17. JULI 1746"
        },
        "246": {
          "author": "WOLFF",
          "addressee": "MANTEUFFEL",
          "place": "HALLE",
          "date": "27. JULI 1746"
        },
        "247": {
          "author": "WOLFF",
          "addressee": "MANTEUFFEL",
          "place": "HALLE",
          "date": "15. AUGUST 1746"
        },
        "248": {
          "author": "WOLFF",
          "addressee": "MANTEUFFEL",
          "place": "HALLE",
          "date": "18. AUGUST 1746"
        },
        "249": {
          "author": "MANTEUFFEL",
          "addressee": "WOLFF",
          "place": "LEIPZIG",
          "date": "19. AUGUST 1746"
        },
        "250": {
          "author": "WOLFF",
          "addressee": "MANTEUFFEL",
          "place": "HALLE",
          "date": "21. AUGUST 1746"
        },
        "251": {
          "author": "MANTEUFFEL",
          "addressee": "WOLFF",
          "place": "LEIPZIG",
          "date": "30. AUGUST 1746"
        },
        "252": {
          "author": "MANTEUFFEL",
          "addressee": "WOLFF",
          "place": "LEIPZIG",
          "date": "5. SEPTEMBER 1746"
        },
        "253": {
          "author": "WOLFF",
          "addressee": "MANTEUFFEL",
          "place": "HALLE",
          "date": "1. OKTOBER 1746"
        },
        "254": {
          "author": "WOLFF",
          "addressee": "MANTEUFFEL",
          "place": "HALLE",
          "date": "4. OKTOBER 1746"
        },
        "255": {
          "author": "MANTEUFFEL",
          "addressee": "WOLFF",
          "place": "LEIPZIG",
          "date": "6. OKTOBER 1746"
        },
        "256": {
          "author": "MANTEUFFEL",
          "addressee": "WOLFF",
          "place": "LEIPZIG",
          "date": "22. OKTOBER 1746"
        },
        "257": {
          "author": "WOLFF",
          "addressee": "MANTEUFFEL",
          "place": "HALLE",
          "date": "22. OKTOBER 1746"
        },
        "258": {
          "author": "MANTEUFFEL",
          "addressee": "WOLFF",
          "place": "LEIPZIG",
          "date": "23. OKTOBER 1746"
        },
        "259": {
          "author": "WOLFF",
          "addressee": "MANTEUFFEL",
          "place": "HALLE",
          "date": "25. OKTOBER 1746"
        },
        "260": {
          "author": "MANTEUFFEL",
          "addressee": "WOLFF",
          "place": "LEIPZIG",
          "date": "26. OKTOBER 1746"
        },
        "261": {
          "author": "WOLFF",
          "addressee": "MANTEUFFEL",
          "place": "HALLE",
          "date": "27. OKTOBER 1746"
        },
        "262": {
          "author": "MANTEUFFEL",
          "addressee": "WOLFF",
          "place": "LEIPZIG",
          "date": "28. OKTOBER 1746"
        },
        "263": {
          "author": "WOLFF",
          "addressee": "MANTEUFFEL",
          "place": "HALLE",
          "date": "29. OKTOBER 1746"
        },
        "264": {
          "author": "WOLFF",
          "addressee": "MANTEUFFEL",
          "place": "HALLE",
          "date": "31. OKTOBER 1746"
        },
        "265": {
          "author": "MANTEUFFEL",
          "addressee": "WOLFF",
          "place": "LEIPZIG",
          "date": "31. OKTOBER 1746"
        },
        "266": {
          "author": "MANTEUFFEL",
          "addressee": "WOLFF",
          "place": "LEIPZIG",
          "date": "3. NOVEMBER 1746"
        },
        "40": {
          "author": "MANTEUFFEL",
          "addressee": "WOLFF",
          "place": "LEIPZIG",
          "date": "4. NOVEMBER 1746"
        },
        "268": {
          "author": "WOLFF",
          "addressee": "MANTEUFFEL",
          "place": "HALLE",
          "date": "6. NOVEMBER 1746"
        },
        "269": {
          "author": "MANTEUFFEL",
          "addressee": "WOLFF",
          "place": "LEIPZIG",
          "date": "7. NOVEMBER 1746"
        },
        "270": {
          "author": "MANTEUFFEL",
          "addressee": "WOLFF",
          "place": "LEIPZIG",
          "date": "8. NOVEMBER 1746"
        },
        "271": {
          "author": "WOLFF",
          "addressee": "MANTEUFFEL",
          "place": "HALLE",
          "date": "9. NOVEMBER 1746"
        },
        "272": {
          "author": "MANTEUFFEL",
          "addressee": "WOLFF",
          "place": "LEIPZIG",
          "date": "9. NOVEMBER 1746"
        },
        "273": {
          "author": "WOLFF",
          "addressee": "MANTEUFFEL",
          "place": "HALLE",
          "date": "10. NOVEMBER 1746"
        },
        "274": {
          "author": "MANTEUFFEL",
          "addressee": "WOLFF",
          "place": "LEIPZIG",
          "date": "11. NOVEMBER 1746"
        },
        "275": {
          "author": "MANTEUFFEL",
          "addressee": "WOLFF",
          "place": "LEIPZIG",
          "date": "12./13. NOVEMBER 1746"
        },
        "276": {
          "author": "WOLFF",
          "addressee": "MANTEUFFEL",
          "place": "HALLE",
          "date": "15. NOVEMBER 1746"
        },
        "277": {
          "author": "MANTEUFFEL",
          "addressee": "WOLFF",
          "place": "LEIPZIG",
          "date": "15. NOVEMBER 1746"
        },
        "278": {
          "author": "WOLFF",
          "addressee": "MANTEUFFEL",
          "place": "HALLE",
          "date": "17. NOVEMBER 1746"
        },
        "279": {
          "author": "WOLFF",
          "addressee": "MANTEUFFEL",
          "place": "HALLE",
          "date": "18. NOVEMBER 1746"
        },
        "280": {
          "author": "MANTEUFFEL",
          "addressee": "WOLFF",
          "place": "LEIPZIG",
          "date": "18. NOVEMBER 1746"
        },
        "281": {
          "author": "WOLFF",
          "addressee": "MANTEUFFEL",
          "place": "HALLE",
          "date": "20. NOVEMBER 1746"
        },
        "282": {
          "author": "MANTEUFFEL",
          "addressee": "WOLFF",
          "place": "LEIPZIG",
          "date": "21. NOVEMBER 1746"
        },
        "283": {
          "author": "MANTEUFFEL",
          "addressee": "WOLFF",
          "place": "LEIPZIG",
          "date": "25. NOVEMBER 1746"
        },
        "284": {
          "author": "WOLFF",
          "addressee": "MANTEUFFEL",
          "place": "HALLE",
          "date": "27. NOVEMBER 1746"
        },
        "285": {
          "author": "MANTEUFFEL",
          "addressee": "WOLFF",
          "place": "LEIPZIG",
          "date": "30. NOVEMBER 1746"
        },
        "286": {
          "author": "WOLFF",
          "addressee": "MANTEUFFEL",
          "place": "HALLE",
          "date": "1. DEZEMBER 1746"
        },
        "287": {
          "author": "MANTEUFFEL",
          "addressee": "WOLFF",
          "place": "LEIPZIG",
          "date": "4. DEZEMBER 1746"
        },
        "288": {
          "author": "WOLFF",
          "addressee": "MANTEUFFEL",
          "place": "HALLE",
          "date": "6. DEZEMBER 1746"
        },
        "289": {
          "author": "MANTEUFFEL",
          "addressee": "WOLFF",
          "place": "LEIPZIG",
          "date": "6. DEZEMBER 1746"
        },
        "290": {
          "author": "WOLFF",
          "addressee": "MANTEUFFEL",
          "place": "HALLE",
          "date": "7. DEZEMBER 1746"
        },
        "291": {
          "author": "MANTEUFFEL",
          "addressee": "WOLFF",
          "place": "LEIPZIG",
          "date": "9. DEZEMBER 1746"
        },
        "292": {
          "author": "WOLFF",
          "addressee": "MANTEUFFEL",
          "place": "HALLE",
          "date": "DEN 11. DEZEMBER"
        },
        "293": {
          "author": "MANTEUFFEL",
          "addressee": "WOLFF",
          "place": "LEIPZIG",
          "date": "11. DEZEMBER 1746"
        },
        "294": {
          "author": "WOLFF",
          "addressee": "MANTEUFFEL",
          "place": "HALLE",
          "date": "19. DEZEMBER 1746"
        },
        "295": {
          "author": "MANTEUFFEL",
          "addressee": "WOLFF",
          "place": "LEIPZIG",
          "date": "19./20. DEZEMBER 1746"
        },
        "296": {
          "author": "MANTEUFFEL",
          "addressee": "WOLFF",
          "place": "LEIPZIG",
          "date": "26. DEZEMBER 1746"
        },
        "297": {
          "author": "WOLFF",
          "addressee": "MANTEUFFEL",
          "place": "HALLE",
          "date": "26. DEZEMBER 1746"
        },
        "298": {
          "author": "MANTEUFFEL",
          "addressee": "WOLFF",
          "place": "LEIPZIG",
          "date": "27./29. DEZEMBER 1746"
        },
        "299": {
          "author": "WOLFF",
          "addressee": "MANTEUFFEL",
          "place": "HALLE",
          "date": "28. DEZEMBER 1746"
        },
        "300": {
          "author": "MANTEUFFEL",
          "addressee": "WOLFF",
          "place": "LEIPZIG",
          "date": "30. DEZEMBER 1746"
        },
        "301": {
          "author": "WOLFF",
          "addressee": "MANTEUFFEL",
          "place": "HALLE",
          "date": "1. JANUAR 1747"
        },
        "302": {
          "author": "WOLFF",
          "addressee": "MANTEUFFEL",
          "place": "HALLE",
          "date": "8. JANUAR 1747"
        },
        "303": {
          "author": "MANTEUFFEL",
          "addressee": "WOLFF",
          "place": "LEIPZIG",
          "date": "22. JANUAR 1747"
        },
        "304": {
          "author": "MANTEUFFEL",
          "addressee": "WOLFF",
          "place": "LEIPZIG",
          "date": "25./26. JANUAR 1747"
        },
        "305": {
          "author": "WOLFF",
          "addressee": "MANTEUFFEL",
          "place": "HALLE",
          "date": "29. JANUAR 1747"
        },
        "306": {
          "author": "WOLFF",
          "addressee": "MANTEUFFEL",
          "place": "HALLE",
          "date": "17. FEBRUAR 1747"
        },
        "307": {
          "author": "WOLFF",
          "addressee": "MANTEUFFEL",
          "place": "HALLE",
          "date": "19. FEBRUAR 1747"
        },
        "308": {
          "author": "MANTEUFFEL",
          "addressee": "WOLFF",
          "place": "LEIPZIG",
          "date": "22. FEBRUAR 1747"
        },
        "309": {
          "author": "MANTEUFFEL",
          "addressee": "WOLFF",
          "place": "LEIPZIG",
          "date": "1. MÄRZ 1747"
        },
        "310": {
          "author": "WOLFF",
          "addressee": "MANTEUFFEL",
          "place": "HALLE",
          "date": "5. MÄRZ 1747"
        },
        "311": {
          "author": "MANTEUFFEL",
          "addressee": "WOLFF",
          "place": "LEIPZIG",
          "date": "9. MÄRZ 1747"
        },
        "312": {
          "author": "WOLFF",
          "addressee": "MANTEUFFEL",
          "place": "HALLE",
          "date": "11. MÄRZ 1747"
        },
        "313": {
          "author": "MANTEUFFEL",
          "addressee": "WOLFF",
          "place": "LEIPZIG",
          "date": "14. MÄRZ 1747"
        },
        "314": {
          "author": "MANTEUFFEL",
          "addressee": "WOLFF",
          "place": "LEIPZIG",
          "date": "24. MÄRZ 1747"
        }
      }
    },
    "3": {
      "letter": {
        "315": {
          "author": "WOLFF",
          "addressee": "MANTEUFFEL",
          "place": "HALLE",
          "date": "26. MÄRZ 1747"
        },
        "316": {
          "author": "WOLFF",
          "addressee": "MANTEUFFEL",
          "place": "HALLE",
          "date": "27. MÄRZ 1747"
        },
        "317": {
          "author": "MANTEUFFEL",
          "addressee": "WOLFF",
          "place": "LEIPZIG",
          "date": "27. MÄRZ 1747"
        },
        "318": {
          "author": "WOLFF",
          "addressee": "MANTEUFFEL",
          "place": "HALLE",
          "date": "30. MÄRZ 1747"
        },
        "319": {
          "author": "MANTEUFFEL",
          "addressee": "WOLFF",
          "place": "LEIPZIG",
          "date": "31. MÄRZ 1747"
        },
        "320": {
          "author": "MANTEUFFEL",
          "addressee": "WOLFF",
          "place": "LEIPZIG",
          "date": "17. APRIL 1747"
        },
        "321": {
          "author": "WOLFF",
          "addressee": "MANTEUFFEL",
          "place": "HALLE",
          "date": "20. APRIL 1747"
        },
        "322": {
          "author": "MANTEUFFEL",
          "addressee": "WOLFF",
          "place": "LEIPZIG",
          "date": "22. APRIL 1747"
        },
        "323": {
          "author": "WOLFF",
          "addressee": "MANTEUFFEL",
          "place": "HALLE",
          "date": "27. APRIL 1747"
        },
        "324": {
          "author": "MANTEUFFEL",
          "addressee": "WOLFF",
          "place": "LEIPZIG",
          "date": "12. MAI 1747"
        },
        "325": {
          "author": "WOLFF",
          "addressee": "MANTEUFFEL",
          "place": "HALLE",
          "date": "17. MAI 1747"
        },
        "326": {
          "author": "MANTEUFFEL",
          "addressee": "WOLFF",
          "place": "LEIPZIG",
          "date": "6. JUNI 1747"
        },
        "327": {
          "author": "MANTEUFFEL",
          "addressee": "WOLFF",
          "place": "LEIPZIG",
          "date": "8. JUNI 1747"
        },
        "328": {
          "author": "WOLFF",
          "addressee": "MANTEUFFEL",
          "place": "HALLE",
          "date": "8. JUNI 1747"
        },
        "329": {
          "author": "MANTEUFFEL",
          "addressee": "WOLFF",
          "place": "LEIPZIG",
          "date": "10. JUNI 1747"
        },
        "330": {
          "author": "WOLFF",
          "addressee": "MANTEUFFEL",
          "place": "HALLE",
          "date": "12. JUNI 1747"
        },
        "331": {
          "author": "MANTEUFFEL",
          "addressee": "WOLFF",
          "place": "LEIPZIG",
          "date": "14. JUNI 1747"
        },
        "332": {
          "author": "MANTEUFFEL",
          "addressee": "WOLFF",
          "place": "LEIPZIG",
          "date": "17. JUNI 1747"
        },
        "333": {
          "author": "WOLFF",
          "addressee": "MANTEUFFEL",
          "place": "HALLE",
          "date": "18. JUNI 1747"
        },
        "334": {
          "author": "WOLFF",
          "addressee": "MANTEUFFEL",
          "place": "HALLE",
          "date": "19. JUNI 1747"
        },
        "335": {
          "author": "WOLFF",
          "addressee": "MANTEUFFEL",
          "place": "HALLE",
          "date": "23. JUNI 1747"
        },
        "336": {
          "author": "MANTEUFFEL",
          "addressee": "WOLFF",
          "place": "LEIPZIG",
          "date": "25. JUNI 1747"
        },
        "337": {
          "author": "WOLFF",
          "addressee": "MANTEUFFEL",
          "place": "HALLE",
          "date": "28. JUNI 1747"
        },
        "338": {
          "author": "MANTEUFFEL",
          "addressee": "WOLFF",
          "place": "LEIPZIG",
          "date": "4. JULI 1747"
        },
        "339": {
          "author": "MANTEUFFEL",
          "addressee": "WOLFF",
          "place": "LEIPZIG",
          "date": "5. JULI 1747"
        },
        "340": {
          "author": "MANTEUFFEL",
          "addressee": "WOLFF",
          "place": "LEIPZIG",
          "date": "6. JULI 1747"
        },
        "341": {
          "author": "WOLFF",
          "addressee": "MANTEUFFEL",
          "place": "HALLE",
          "date": "7. JULI 1747"
        },
        "342": {
          "author": "MANTEUFFEL",
          "addressee": "WOLFF",
          "place": "LEIPZIG",
          "date": "8. JULI 1747"
        },
        "343": {
          "author": "WOLFF",
          "addressee": "MANTEUFFEL",
          "place": "HALLE",
          "date": "13. JULI 1747"
        },
        "344": {
          "author": "WOLFF",
          "addressee": "MANTEUFFEL",
          "place": "HALLE",
          "date": "15. JULI 1747"
        },
        "345": {
          "author": "MANTEUFFEL",
          "addressee": "WOLFF",
          "place": "LEIPZIG",
          "date": "15. JULI 1747"
        },
        "346": {
          "author": "MANTEUFFEL",
          "addressee": "WOLFF",
          "place": "LEIPZIG",
          "date": "18./19. JULI 1747"
        },
        "347": {
          "author": "WOLFF",
          "addressee": "MANTEUFFEL",
          "place": "HALLE",
          "date": "21. JULI 1747"
        },
        "348": {
          "author": "MANTEUFFEL",
          "addressee": "WOLFF",
          "place": "LEIPZIG",
          "date": "24. JULI 1747"
        },
        "349": {
          "author": "WOLFF",
          "addressee": "MANTEUFFEL",
          "place": "HALLE",
          "date": "27. JULI 1747"
        },
        "350": {
          "author": "MANTEUFFEL",
          "addressee": "WOLFF",
          "place": "LEIPZIG",
          "date": "4. AUGUST 1747"
        },
        "351": {
          "author": "WOLFF",
          "addressee": "MANTEUFFEL",
          "place": "HALLE",
          "date": "9. AUGUST 1747"
        },
        "352": {
          "author": "MANTEUFFEL",
          "addressee": "WOLFF",
          "place": "LEIPZIG",
          "date": "11. AUGUST 1747"
        },
        "353": {
          "author": "MANTEUFFEL",
          "addressee": "WOLFF",
          "place": "LEIPZIG",
          "date": "12. AUGUST 1747"
        },
        "354": {
          "author": "WOLFF",
          "addressee": "MANTEUFFEL",
          "place": "HALLE",
          "date": "13. AUGUST 1747"
        },
        "355": {
          "author": "MANTEUFFEL",
          "addressee": "WOLFF",
          "place": "LEIPZIG",
          "date": "14. AUGUST 1747"
        },
        "356": {
          "author": "MANTEUFFEL",
          "addressee": "WOLFF",
          "place": "LEIPZIG",
          "date": "18. AUGUST 1747"
        },
        "357": {
          "author": "MANTEUFFEL",
          "addressee": "WOLFF",
          "place": "LEIPZIG",
          "date": "20. AUGUST 1747"
        },
        "358": {
          "author": "WOLFF",
          "addressee": "MANTEUFFEL",
          "place": "HALLE",
          "date": "20. AUGUST 1747"
        },
        "359": {
          "author": "MANTEUFFEL",
          "addressee": "WOLFF",
          "place": "LEIPZIG",
          "date": "21. AUGUST 1747"
        },
        "360": {
          "author": "MANTEUFFEL",
          "addressee": "WOLFF",
          "place": "LEIPZIG",
          "date": "23. AUGUST 1747"
        },
        "361": {
          "author": "MANTEUFFEL",
          "addressee": "WOLFF",
          "place": "LEIPZIG",
          "date": "25. AUGUST 1747"
        },
        "362": {
          "author": "WOLFF",
          "addressee": "MANTEUFFEL",
          "place": "HALLE",
          "date": "27. AUGUST 1747"
        },
        "363": {
          "author": "MANTEUFFEL",
          "addressee": "WOLFF",
          "place": "LEIPZIG",
          "date": "28. AUGUST 1747"
        },
        "364": {
          "author": "MANTEUFFEL",
          "addressee": "WOLFF",
          "place": "LEIPZIG",
          "date": "28. AUGUST 1747"
        },
        "365": {
          "author": "WOLFF",
          "addressee": "MANTEUFFEL",
          "place": "HALLE",
          "date": "29. AUGUST 1747"
        },
        "366": {
          "author": "MANTEUFFEL",
          "addressee": "WOLFF",
          "place": "LEIPZIG",
          "date": "30. AUGUST 1747"
        },
        "367": {
          "author": "WOLFF",
          "addressee": "MANTEUFFEL",
          "place": "HALLE",
          "date": "30. AUGUST/1. SEPTEMBER 1747"
        },
        "368": {
          "author": "MANTEUFFEL",
          "addressee": "WOLFF",
          "place": "LEIPZIG",
          "date": "7. SEPTEMBER 1747"
        },
        "369": {
          "author": "WOLFF",
          "addressee": "MANTEUFFEL",
          "place": "HALLE",
          "date": "7. SEPTEMBER 1747"
        },
        "370": {
          "author": "WOLFF",
          "addressee": "MANTEUFFEL",
          "place": "HALLE",
          "date": "10. SEPTEMBER 1747"
        },
        "371": {
          "author": "MANTEUFFEL",
          "addressee": "WOLFF",
          "place": "LEIPZIG",
          "date": "10. SEPTEMBER 1747"
        },
        "372": {
          "author": "MANTEUFFEL",
          "addressee": "WOLFF",
          "place": "LEIPZIG",
          "date": "15. SEPTEMBER 1747"
        },
        "373": {
          "author": "WOLFF",
          "addressee": "MANTEUFFEL",
          "place": "HALLE",
          "date": "17. SEPTEMBER 1747"
        },
        "374": {
          "author": "WOLFF",
          "addressee": "MANTEUFFEL",
          "place": "HALLE",
          "date": "18. SEPTEMBER 1747"
        },
        "375": {
          "author": "MANTEUFFEL",
          "addressee": "WOLFF",
          "place": "LEIPZIG",
          "date": "19. SEPTEMBER 1747"
        },
        "376": {
          "author": "MANTEUFFEL",
          "addressee": "WOLFF",
          "place": "LEIPZIG",
          "date": "21. SEPTEMBER 1747"
        },
        "377": {
          "author": "WOLFF",
          "addressee": "MANTEUFFEL",
          "place": "HALLE",
          "date": "22. SEPTEMBER 1747"
        },
        "378": {
          "author": "MANTEUFFEL",
          "addressee": "WOLFF",
          "place": "LEIPZIG",
          "date": "23. SEPTEMBER 1747"
        },
        "379": {
          "author": "WOLFF",
          "addressee": "MANTEUFFEL",
          "place": "HALLE",
          "date": "23. SEPTEMBER 1747"
        },
        "380": {
          "author": "MANTEUFFEL",
          "addressee": "WOLFF",
          "place": "LEIPZIG",
          "date": "26. SEPTEMBER 1747"
        },
        "381": {
          "author": "WOLFF",
          "addressee": "MANTEUFFEL",
          "place": "HALLE",
          "date": "28. SEPTEMBER 1747"
        },
        "382": {
          "author": "MANTEUFFEL",
          "addressee": "WOLFF",
          "place": "LEIPZIG",
          "date": "29. SEPTEMBER 1747"
        },
        "383": {
          "author": "MANTEUFFEL",
          "addressee": "WOLFF",
          "place": "LEIPZIG",
          "date": "3. OKTOBER 1747"
        },
        "384": {
          "author": "MANTEUFFEL",
          "addressee": "WOLFF",
          "place": "LEIPZIG",
          "date": "8. OKTOBER 1747"
        },
        "385": {
          "author": "MANTEUFFEL",
          "addressee": "WOLFF",
          "place": "LEIPZIG",
          "date": "12. OKTOBER 1747"
        },
        "386": {
          "author": "WOLFF",
          "addressee": "MANTEUFFEL",
          "place": "HALLE",
          "date": "12. OKTOBER 1747"
        },
        "387": {
          "author": "MANTEUFFEL",
          "addressee": "WOLFF",
          "place": "LEIPZIG",
          "date": "13. OKTOBER 1747"
        },
        "388": {
          "author": "WOLFF",
          "addressee": "MANTEUFFEL",
          "place": "HALLE",
          "date": "16. OKTOBER 1747"
        },
        "389": {
          "author": "MANTEUFFEL",
          "addressee": "WOLFF",
          "place": "LEIPZIG",
          "date": "19. OKTOBER 1747"
        },
        "390": {
          "author": "MANTEUFFEL",
          "addressee": "WOLFF",
          "place": "LEIPZIG",
          "date": "24. OKTOBER 1747"
        },
        "391": {
          "author": "MANTEUFFEL",
          "addressee": "WOLFF",
          "place": "LEIPZIG",
          "date": "26. OKTOBER 1747"
        },
        "392": {
          "author": "WOLFF",
          "addressee": "MANTEUFFEL",
          "place": "HALLE",
          "date": "30. OKTOBER 1747"
        },
        "393": {
          "author": "MANTEUFFEL",
          "addressee": "WOLFF",
          "place": "LEIPZIG",
          "date": "1. NOVEMBER 1747"
        },
        "394": {
          "author": "MANTEUFFEL",
          "addressee": "WOLFF",
          "place": "LEIPZIG",
          "date": "3. NOVEMBER 1747"
        },
        "395": {
          "author": "MANTEUFFEL",
          "addressee": "WOLFF",
          "place": "LEIPZIG",
          "date": "5. NOVEMBER 1747"
        },
        "396": {
          "author": "MANTEUFFEL",
          "addressee": "WOLFF",
          "place": "LEIPZIG",
          "date": "7. NOVEMBER 1747"
        },
        "397": {
          "author": "WOLFF",
          "addressee": "MANTEUFFEL",
          "place": "HALLE",
          "date": "8. NOVEMBER 1747"
        },
        "398": {
          "author": "MANTEUFFEL",
          "addressee": "WOLFF",
          "place": "LEIPZIG",
          "date": "10. NOVEMBER 1747"
        },
        "399": {
          "author": "WOLFF",
          "addressee": "MANTEUFFEL",
          "place": "HALLE",
          "date": "19. NOVEMBER 1747"
        },
        "400": {
          "author": "MANTEUFFEL",
          "addressee": "WOLFF",
          "place": "LEIPZIG",
          "date": "26. NOVEMBER 1747"
        },
        "401": {
          "author": "WOLFF",
          "addressee": "MANTEUFFEL",
          "place": "HALLE",
          "date": "4. DEZEMBER 1747"
        },
        "402": {
          "author": "WOLFF",
          "addressee": "MANTEUFFEL",
          "place": "HALLE",
          "date": "12. DEZEMBER 1747"
        },
        "403": {
          "author": "MANTEUFFEL",
          "addressee": "WOLFF",
          "place": "LEIPZIG",
          "date": "13. DEZEMBER 1747"
        },
        "404": {
          "author": "MANTEUFFEL",
          "addressee": "WOLFF",
          "place": "LEIPZIG",
          "date": "14. DEZEMBER 1747"
        },
        "405": {
          "author": "WOLFF",
          "addressee": "MANTEUFFEL",
          "place": "HALLE",
          "date": "16. DEZEMBER 1747"
        },
        "406": {
          "author": "MANTEUFFEL",
          "addressee": "WOLFF",
          "place": "LEIPZIG",
          "date": "17. DEZEMBER 1747"
        },
        "407": {
          "author": "MANTEUFFEL",
          "addressee": "WOLFF",
          "place": "LEIPZIG",
          "date": "18. DEZEMBER 1747"
        },
        "408": {
          "author": "WOLFF",
          "addressee": "MANTEUFFEL",
          "place": "HALLE",
          "date": "19. DEZEMBER 1747"
        },
        "409": {
          "author": "MANTEUFFEL",
          "addressee": "WOLFF",
          "place": "LEIPZIG",
          "date": "25. DEZEMBER 1747"
        },
        "410": {
          "author": "WOLFF",
          "addressee": "MANTEUFFEL",
          "place": "HALLE",
          "date": "25. DEZEMBER 1747"
        },
        "411": {
          "author": "MANTEUFFEL",
          "addressee": "WOLFF",
          "place": "LEIPZIG",
          "date": "27. DEZEMBER 1747"
        },
        "412": {
          "author": "WOLFF",
          "addressee": "MANTEUFFEL",
          "place": "HALLE",
          "date": "29. DEZEMBER 1747"
        },
        "413": {
          "author": "MANTEUFFEL",
          "addressee": "WOLFF",
          "place": "LEIPZIG",
          "date": "30. DEZEMBER 1747"
        },
        "414": {
          "author": "WOLFF",
          "addressee": "MANTEUFFEL",
          "place": "HALLE",
          "date": "2. JANUAR 1748"
        },
        "415": {
          "author": "WOLFF",
          "addressee": "MANTEUFFEL",
          "place": "HALLE",
          "date": "7. JANUAR 1748"
        },
        "416": {
          "author": "MANTEUFFEL",
          "addressee": "WOLFF",
          "place": "LEIPZIG",
          "date": "11. JANUAR 1748"
        },
        "417": {
          "author": "WOLFF",
          "addressee": "MANTEUFFEL",
          "place": "HALLE",
          "date": "14. JANUAR 1748"
        },
        "418": {
          "author": "MANTEUFFEL",
          "addressee": "WOLFF",
          "place": "LEIPZIG",
          "date": "18. JANUAR 1748"
        },
        "419": {
          "author": "MANTEUFFEL",
          "addressee": "WOLFF",
          "place": "LEIPZIG",
          "date": "23. JANUAR 1748"
        },
        "420": {
          "author": "WOLFF",
          "addressee": "MANTEUFFEL",
          "place": "HALLE",
          "date": "29. JANUAR 1748"
        },
        "421": {
          "author": "MANTEUFFEL",
          "addressee": "WOLFF",
          "place": "LEIPZIG",
          "date": "29./30. JANUAR 1748"
        },
        "422": {
          "author": "WOLFF",
          "addressee": "MANTEUFFEL",
          "place": "HALLE",
          "date": "30. JANUAR 1748"
        },
        "423": {
          "author": "MANTEUFFEL",
          "addressee": "WOLFF",
          "place": "LEIPZIG",
          "date": "1. FEBRUAR 1748"
        },
        "424": {
          "author": "WOLFF",
          "addressee": "MANTEUFFEL",
          "place": "HALLE",
          "date": "4. FEBRUAR 1748"
        },
        "425": {
          "author": "MANTEUFFEL",
          "addressee": "WOLFF",
          "place": "LEIPZIG",
          "date": "6. FEBRUAR 1748"
        },
        "426": {
          "author": "WOLFF",
          "addressee": "MANTEUFFEL",
          "place": "HALLE",
          "date": "8. FEBRUAR 1748"
        },
        "427": {
          "author": "WOLFF",
          "addressee": "MANTEUFFEL",
          "place": "HALLE",
          "date": "9. FEBRUAR 1748"
        },
        "428": {
          "author": "WOLFF",
          "addressee": "MANTEUFFEL",
          "place": "HALLE",
          "date": "12. FEBRUAR 1748"
        },
        "429": {
          "author": "MANTEUFFEL",
          "addressee": "WOLFF",
          "place": "LEIPZIG",
          "date": "13. FEBRUAR 1748"
        },
        "430": {
          "author": "WOLFF",
          "addressee": "MANTEUFFEL",
          "place": "HALLE",
          "date": "20. FEBRUAR 1748"
        },
        "431": {
          "author": "MANTEUFFEL",
          "addressee": "WOLFF",
          "place": "LEIPZIG",
          "date": "24. FEBRUAR 1748"
        },
        "432": {
          "author": "WOLFF",
          "addressee": "MANTEUFFEL",
          "place": "HALLE",
          "date": "29. FEBRUAR 1748"
        },
        "433": {
          "author": "MANTEUFFEL",
          "addressee": "WOLFF",
          "place": "LEIPZIG",
          "date": "5. MÄRZ 1748"
        },
        "434": {
          "author": "WOLFF",
          "addressee": "MANTEUFFEL",
          "place": "HALLE",
          "date": "9. MÄRZ 1748"
        },
        "435": {
          "author": "MANTEUFFEL",
          "addressee": "WOLFF",
          "place": "LEIPZIG",
          "date": "9. MÄRZ 1748"
        },
        "436": {
          "author": "MANTEUFFEL",
          "addressee": "WOLFF",
          "place": "LEIPZIG",
          "date": "11. MÄRZ 1748"
        },
        "437": {
          "author": "WOLFF",
          "addressee": "MANTEUFFEL",
          "place": "HALLE",
          "date": "17. MÄRZ 1748"
        },
        "438": {
          "author": "MANTEUFFEL",
          "addressee": "WOLFF",
          "place": "LEIPZIG",
          "date": "19. MÄRZ 1748"
        },
        "439": {
          "author": "WOLFF",
          "addressee": "MANTEUFFEL",
          "place": "HALLE",
          "date": "25. MÄRZ 1748"
        },
        "440": {
          "author": "MANTEUFFEL",
          "addressee": "WOLFF",
          "place": "LEIPZIG",
          "date": "28. MÄRZ 1748"
        },
        "441": {
          "author": "WOLFF",
          "addressee": "MANTEUFFEL",
          "place": "HALLE",
          "date": "JUNI 1748 (FRÜHESTENS 24. JUNI"
        },
        "442": {
          "author": "MANTEUFFEL",
          "addressee": "WOLFF",
          "place": "LEIPZIG",
          "date": "30. JUNI 1748"
        },
        "443": {
          "author": "WOLFF",
          "addressee": "MANTEUFFEL",
          "place": "HALLE",
          "date": "1. JULI 1748"
        },
        "444": {
          "author": "MANTEUFFEL",
          "addressee": "WOLFF",
          "place": "LEIPZIG",
          "date": "3. JULI 1748"
        },
        "445": {
          "author": "MANTEUFFEL",
          "addressee": "WOLFF",
          "place": "LEIPZIG",
          "date": "4. JULI 1748"
        },
        "446": {
          "author": "WOLFF",
          "addressee": "MANTEUFFEL",
          "place": "HALLE",
          "date": "11. JULI 1748"
        },
        "447": {
          "author": "MANTEUFFEL",
          "addressee": "WOLFF",
          "place": "LEIPZIG",
          "date": "11. JULI 1748"
        },
        "448": {
          "author": "WOLFF",
          "addressee": "MANTEUFFEL",
          "place": "HALLE",
          "date": "13. JULI 1748"
        },
        "449": {
          "author": "MANTEUFFEL",
          "addressee": "WOLFF",
          "place": "LEIPZIG",
          "date": "16. JULI 1748"
        },
        "450": {
          "author": "WOLFF",
          "addressee": "MANTEUFFEL",
          "place": "HALLE",
          "date": "17. JULI 1748"
        },
        "451": {
          "author": "MANTEUFFEL",
          "addressee": "WOLFF",
          "place": "LEIPZIG",
          "date": "19. JULI 1748"
        },
        "452": {
          "author": "MANTEUFFEL",
          "addressee": "WOLFF",
          "place": "LEIPZIG",
          "date": "22. JULI 1748"
        },
        "453": {
          "author": "WOLFF",
          "addressee": "MANTEUFFEL",
          "place": "HALLE",
          "date": "23. JULI 1748"
        },
        "454": {
          "author": "MANTEUFFEL",
          "addressee": "WOLFF",
          "place": "LEIPZIG",
          "date": "26. JULI 1748"
        },
        "455": {
          "author": "WOLFF",
          "addressee": "MANTEUFFEL",
          "place": "HALLE",
          "date": "26. JULI 1748"
        },
        "456": {
          "author": "WOLFF",
          "addressee": "MANTEUFFEL",
          "place": "HALLE",
          "date": "29. JULI 1748"
        },
        "457": {
          "author": "MANTEUFFEL",
          "addressee": "WOLFF",
          "place": "LEIPZIG",
          "date": "30. JULI 1748"
        },
        "458": {
          "author": "WOLFF",
          "addressee": "MANTEUFFEL",
          "place": "HALLE",
          "date": "4. AUGUST 1748"
        },
        "459": {
          "author": "MANTEUFFEL",
          "addressee": "WOLFF",
          "place": "LEIPZIG",
          "date": "6. AUGUST 1748"
        },
        "460": {
          "author": "MANTEUFFEL",
          "addressee": "WOLFF",
          "place": "LEIPZIG",
          "date": "13. AUGUST 1748"
        },
        "461": {
          "author": "WOLFF",
          "addressee": "MANTEUFFEL",
          "place": "HALLE",
          "date": "15. AUGUST 1748"
        },
        "462": {
          "author": "WOLFF",
          "addressee": "MANTEUFFEL",
          "place": "HALLE",
          "date": "19. AUGUST 1748"
        },
        "463": {
          "author": "MANTEUFFEL",
          "addressee": "WOLFF",
          "place": "LEIPZIG",
          "date": "19. AUGUST 1748"
        },
        "464": {
          "author": "MANTEUFFEL",
          "addressee": "WOLFF",
          "place": "LEIPZIG",
          "date": "22. AUGUST 1748"
        },
        "465": {
          "author": "WOLFF",
          "addressee": "MANTEUFFEL",
          "place": "HALLE",
          "date": "22. AUGUST 1748"
        },
        "466": {
          "author": "MANTEUFFEL",
          "addressee": "WOLFF",
          "place": "LEIPZIG",
          "date": "27. AUGUST 1748"
        },
        "467": {
          "author": "WOLFF",
          "addressee": "MANTEUFFEL",
          "place": "HALLE",
          "date": "2. SEPTEMBER 1748"
        },
        "468": {
          "author": "MANTEUFFEL",
          "addressee": "WOLFF",
          "place": "LEIPZIG",
          "date": "5. SEPTEMBER 1748"
        },
        "469": {
          "author": "WOLFF",
          "addressee": "MANTEUFFEL",
          "place": "HALLE",
          "date": "8. SEPTEMBER 1748"
        },
        "470": {
          "author": "MANTEUFFEL",
          "addressee": "WOLFF",
          "place": "LEIPZIG",
          "date": "9. SEPTEMBER 1748"
        },
        "471": {
          "author": "WOLFF",
          "addressee": "MANTEUFFEL",
          "place": "HALLE",
          "date": "14. SEPTEMBER 1748"
        },
        "472": {
          "author": "MANTEUFFEL",
          "addressee": "WOLFF",
          "place": "LEIPZIG",
          "date": "16. SEPTEMBER 1748"
        },
        "473": {
          "author": "MANTEUFFEL",
          "addressee": "WOLFF",
          "place": "LEIPZIG",
          "date": "19. SEPTEMBER 1748"
        },
        "474": {
          "author": "WOLFF",
          "addressee": "MANTEUFFEL",
          "place": "HALLE",
          "date": "19. SEPTEMBER 1748"
        },
        "475": {
          "author": "WOLFF",
          "addressee": "MANTEUFFEL",
          "place": "HALLE",
          "date": "23. SEPTEMBER 1748"
        },
        "476": {
          "author": "MANTEUFFEL",
          "addressee": "WOLFF",
          "place": "LEIPZIG",
          "date": "24. SEPTEMBER 1748"
        },
        "477": {
          "author": "WOLFF",
          "addressee": "MANTEUFFEL",
          "place": "HALLE",
          "date": "26. SEPTEMBER 1748"
        },
        "478": {
          "author": "MANTEUFFEL",
          "addressee": "WOLFF",
          "place": "LEIPZIG",
          "date": "29. SEPTEMBER 1748"
        },
        "479": {
          "author": "WOLFF",
          "addressee": "MANTEUFFEL",
          "place": "HALLE",
          "date": "1. OKTOBER 1748"
        },
        "480": {
          "author": "MANTEUFFEL",
          "addressee": "WOLFF",
          "place": "LEIPZIG",
          "date": "2. OKTOBER 1748"
        },
        "481": {
          "author": "WOLFF",
          "addressee": "MANTEUFFEL",
          "place": "HALLE",
          "date": "4. OKTOBER 1748"
        },
        "482": {
          "author": "WOLFF",
          "addressee": "MANTEUFFEL",
          "place": "HALLE",
          "date": "6. OKTOBER 1748"
        },
        "483": {
          "author": "MANTEUFFEL",
          "addressee": "WOLFF",
          "place": "LEIPZIG",
          "date": "8. OKTOBER 1748"
        },
        "484": {
          "author": "WOLFF",
          "addressee": "MANTEUFFEL",
          "place": "HALLE",
          "date": "14. OKTOBER 1748"
        },
        "485": {
          "author": "WOLFF",
          "addressee": "MANTEUFFEL",
          "place": "HALLE",
          "date": "26. OKTOBER 1748"
        },
        "486": {
          "author": "WOLFF",
          "addressee": "MANTEUFFEL",
          "place": "HALLE",
          "date": "2. NOVEMBER 1748"
        },
        "487": {
          "author": "WOLFF",
          "addressee": "MANTEUFFEL",
          "place": "HALLE",
          "date": "5. NOVEMBER 1748"
        },
        "488": {
          "author": "WOLFF",
          "addressee": "MANTEUFFEL",
          "place": "HALLE",
          "date": "5. NOVEMBER 1748"
        }
      }
    }
  }
}